Time Series – ISSS608 Group 12
…
colnames(dengue_daily) <- c("Onset_Date", "Case_Classification_Date", "Reporting_Date", "Gender", 
                  "Age_Group", "Residential_County_City", "Residential_Town_District", 
                  "Residential_Village", "Smallest_Statistical_Area", "X_coord", 
                  "Y_coord", "Primary_Statistical_Area", "Secondary_Statistical_Area",
                  "Infection_County_City", "Infection_Town_District", "Infection_Village",
                  "Imported_Case", "Infection_Country", "Confirmed_Cases", 
                  "Residential_Village_Code", "Infection_Village_Code", "Serotype", 
                  "MOI_Residential_County_Code", "MOI_Residential_Town_Code", 
                  "MOI_Infection_County_Code", "MOI_Infection_Town_Code")

translate values

dengue_daily %>% distinct(Residential_Town_District)

# A tibble: 352 × 1
   Residential_Town_District
   <chr>                    
 1 屏東市                   
 2 東港鎮                   
 3 宜蘭市                   
 4 苓雅區                   
 5 五結鄉                   
 6 蘆竹區                   
 7 新店區                   
 8 北投區                   
 9 南區                     
10 楠梓區                   
# ℹ 342 more rows
…
